{
    "sections": [
        {
            "title": "doc one",
            "filePath": "main/aws/Release note 15_12_20.md",
            "sections": [
                {
                    "title": "doc one point one",
                    "filePath": "main/aws/Release notes 13_1_2020.md"
                }
            ]
        },
        {
            "title": "doc two",
            "filePath": "main/aws/Release notes 15th Jan 2021.md"
        }
    ]
}
